/home/dandi/.config/alacritty/alacritty.yml
/home/dandi/.vimrc
/home/dandi/.bashrc
/home/dandi/.bash_aliases
/home/dandi/.bash_history
/home/dandi/.config/lf/lfrc
/home/dandi/.config/vifm/vifmrc
/home/dandi/.config/bspwm/bspwmrc
/home/dandi/.config/sxhkd/sxhkdrc
